{
  "customLayouts": {
    "brand": {},
    "category": {},
    "page": {
      "customtemlate.html": "/custom-page/"
    },
    "product": {}
  },
  "normalStoreUrl": "https://cetybigcommerce.mybigcommerce.com/",
  "port": 3000
}